\relax 
\providecommand\hyper@newdestlabel[2]{}
\providecommand*{\memsetcounter}[2]{}
\providecommand\HyperFirstAtBeginDocument{\AtBeginDocument}
\HyperFirstAtBeginDocument{\ifx\hyper@anchor\@undefined
\global\let\oldcontentsline\contentsline
\gdef\contentsline#1#2#3#4{\oldcontentsline{#1}{#2}{#3}}
\global\let\oldnewlabel\newlabel
\gdef\newlabel#1#2{\newlabelxx{#1}#2}
\gdef\newlabelxx#1#2#3#4#5#6{\oldnewlabel{#1}{{#2}{#3}}}
\AtEndDocument{\ifx\hyper@anchor\@undefined
\let\contentsline\oldcontentsline
\let\newlabel\oldnewlabel
\fi}
\fi}
\global\let\hyper@last\relax 
\gdef\HyperFirstAtBeginDocument#1{#1}
\providecommand*\HyPL@Entry[1]{}
\catcode `"\active 
\catcode `<\active 
\catcode `>\active 
\@nameuse{es@quoting}
\citation{abnt-url-package=url}
\HyPL@Entry{0<</S/D>>}
\@writefile{toc}{\changetocdepth  {4}}
\babel@aux{brazil}{}
\@writefile{toc}{\setlength  {\cftchapterindent }{\cftlastnumwidth } \setlength  {\cftchapternumwidth }{2em}}
\@writefile{toc}{\setlength  {\cftchapterindent }{\cftlastnumwidth } \setlength  {\cftchapternumwidth }{2em}}
\@writefile{toc}{\contentsline {chapter}{Introdução}{3}{chapter*.1}}
\@input{elementos-textuais/capitulo-1.aux}
\@input{elementos-textuais/capitulo-2.aux}
\@input{elementos-textuais/descricao.aux}
\@writefile{toc}{\setlength  {\cftchapterindent }{0em} \setlength  {\cftchapternumwidth }{\cftlastnumwidth }}
\@writefile{toc}{\contentsline {chapter}{\chapternumberline {4}\MakeTextUppercase  {Aprendizagem Obtida}}{25}{chapter.4}}
\@writefile{toc}{\setlength  {\cftchapterindent }{0em} \setlength  {\cftchapternumwidth }{\cftlastnumwidth }}
\@writefile{toc}{\contentsline {chapter}{\chapternumberline {5}\MakeTextUppercase  {Perspectivas Futuras}}{26}{chapter.5}}
\@writefile{lof}{\contentsline {figure}{\numberline {16}{\ignorespaces  Comparação entre o desempenho do modo de movimento \textit  {step by step} e o \textit  {fly-scan}.}}{27}{figure.5.16}}
\newlabel{flybi}{{\M@TitleReference {16}{Sistema de Movimentação e Controle}}{27}{Comparação entre o desempenho do modo de movimento \textit {step by step} e o \textit {fly-scan}}{figure.5.16}{}}
\@writefile{toc}{\vspace  {\cftbeforechapterskip }}
\bibdata{abntex2-options,elementos-postextuais/referencias}
\@writefile{toc}{\setlength  {\cftchapterindent }{\cftlastnumwidth } \setlength  {\cftchapternumwidth }{2em}}
\@writefile{toc}{\contentsline {chapter}{CONCLUSÃO}{29}{chapter*.13}}
\@writefile{toc}{\vspace  {\cftbeforechapterskip }}
\bibcite{artigo_SXS}{Abbate et al. 1999}
\bibciteEXPL{artigo_SXS}{Abbate et al.}
\bibciteIMPL{artigo_SXS}{ABBATE et al.}
\bibciteYEAR{artigo_SXS}{1999}
\bibcite{dalton_presentation}{Abdala 2018}
\bibciteEXPL{dalton_presentation}{Abdala}
\bibciteIMPL{dalton_presentation}{ABDALA}
\bibciteYEAR{dalton_presentation}{2018}
\bibcite{amptek}{AMPTEK 2018}
\bibciteEXPL{amptek}{AMPTEK}
\bibciteIMPL{amptek}{AMPTEK}
\bibciteYEAR{amptek}{2018}
\bibcite{LINAC}{Cardoso, Resende e Marques 2011}
\bibciteEXPL{LINAC}{Cardoso, Resende e Marques}
\bibciteIMPL{LINAC}{CARDOSO; RESENDE; MARQUES}
\bibciteYEAR{LINAC}{2011}
\bibcite{loka}{Cherry et al. 2004}
\bibciteEXPL{loka}{Cherry et al.}
\bibciteIMPL{loka}{CHERRY et al.}
\bibciteYEAR{loka}{2004}
\bibcite{CNPEM_site_home}{CNPEM 2018}
\bibciteEXPL{CNPEM_site_home}{CNPEM}
\bibciteIMPL{CNPEM_site_home}{CNPEM}
\bibciteYEAR{CNPEM_site_home}{2018}
\bibcite{linha-sxs_cnpem_site}{CNPEM-SXS 2018}
\bibciteEXPL{linha-sxs_cnpem_site}{CNPEM-SXS}
\bibciteIMPL{linha-sxs_cnpem_site}{CNPEM-SXS}
\bibciteYEAR{linha-sxs_cnpem_site}{2018}
\bibcite{imagem_anel_png}{ESTADÃO 2018}
\bibciteEXPL{imagem_anel_png}{ESTADÃO}
\bibciteIMPL{imagem_anel_png}{ESTADÃO}
\bibciteYEAR{imagem_anel_png}{2018}
\bibcite{maroto}{Fessler 2009}
\bibciteEXPL{maroto}{Fessler}
\bibciteIMPL{maroto}{FESSLER}
\bibciteYEAR{maroto}{2009}
\bibcite{SINCRTRON-RADIATION}{Garc{\'\i }a 2016}
\bibciteEXPL{SINCRTRON-RADIATION}{Garc{\'\i }a}
\bibciteIMPL{SINCRTRON-RADIATION}{GARC{\'I}A}
\bibciteYEAR{SINCRTRON-RADIATION}{2016}
\bibcite{vortex_site}{HITACHI 2018}
\bibciteEXPL{vortex_site}{HITACHI}
\bibciteIMPL{vortex_site}{HITACHI}
\bibciteYEAR{vortex_site}{2018}
\bibcite{LNLS_site_home}{LNLS 2018}
\bibciteEXPL{LNLS_site_home}{LNLS}
\bibciteIMPL{LNLS_site_home}{LNLS}
\bibciteYEAR{LNLS_site_home}{2018}
\bibcite{bordak}{Mesquita 2011}
\bibciteEXPL{bordak}{Mesquita}
\bibciteIMPL{bordak}{MESQUITA}
\bibciteYEAR{bordak}{2011}
\bibcite{toma}{O'Sullivan et al. 2017}
\bibciteEXPL{toma}{O'Sullivan et al.}
\bibciteIMPL{toma}{O'SULLIVAN et al.}
\bibciteYEAR{toma}{2017}
\@writefile{toc}{\setlength  {\cftchapterindent }{\cftlastnumwidth } \setlength  {\cftchapternumwidth }{2em}}
\@writefile{toc}{\contentsline {chapter}{\uppercase {Refer\^encias}}{30}{section*.16}}
\bibcite{tomagem}{PEREIRA e Lopes 2011}
\bibciteEXPL{tomagem}{PEREIRA e Lopes}
\bibciteIMPL{tomagem}{PEREIRA; LOPES}
\bibciteYEAR{tomagem}{2011}
\bibcite{carnauba}{Perez et al. 2018}
\bibciteEXPL{carnauba}{Perez et al.}
\bibciteIMPL{carnauba}{PEREZ et al.}
\bibciteYEAR{carnauba}{2018}
\bibcite{livro_solo}{Peth et al. 2008}
\bibciteEXPL{livro_solo}{Peth et al.}
\bibciteIMPL{livro_solo}{PETH et al.}
\bibciteYEAR{livro_solo}{2008}
\bibcite{SXS-SHAREPOINT}{VICENTIN 2018}
\bibciteEXPL{SXS-SHAREPOINT}{VICENTIN}
\bibciteIMPL{SXS-SHAREPOINT}{VICENTIN}
\bibciteYEAR{SXS-SHAREPOINT}{2018}
\bibcite{CDR}{VICENTIN 2016}
\bibciteEXPL{CDR}{VICENTIN}
\bibciteIMPL{CDR}{VICENTIN}
\bibciteYEAR{CDR}{2016}
\@writefile{toc}{\vspace  {\cftbeforechapterskip }}
\newlabel{LastPage}{{}{31}{}{page.31}{}}
\xdef\lastpage@lastpage{31}
\xdef\lastpage@lastpageHy{31}
\bibstyle{abntex2-alf}
\memsetcounter{lastsheet}{31}
\memsetcounter{lastpage}{31}
