\babel@toc {brazil}{}
\contentsline {figure}{\numberline {1}{\ignorespaces Representação esquemática do UVX no LNLS. }}{21}{figure.1.1}
\contentsline {figure}{\numberline {2}{\ignorespaces Linha SXS}}{22}{figure.1.2}
\contentsline {figure}{\numberline {3}{\ignorespaces Representação esquemática da linha SXS.}}{22}{figure.1.3}
\contentsline {figure}{\numberline {4}{\ignorespaces Fluxo de fótons na amostra de acordo com o cristal do monocromador escolhido. }}{23}{figure.1.4}
\contentsline {figure}{\numberline {5}{\ignorespaces (a) Projeto da estação TXM para a técnica de Tomografia por fluorescência de raios-x. (b) Estação TXM em Fevereiro de 2018, antes da instação dos estágios da Aerotech.}}{26}{figure.2.5}
\contentsline {figure}{\numberline {6}{\ignorespaces (a) Exemplo da posição da amostra frente a janela de berílio e ao detector.O detector e a jannela de berílio estão próximos da amostra para diminuir a atenuação pelo ar. (b) Esquema do suporte do policapilar junto a janela de berílio por onde o feixe da linha sai.}}{27}{figure.2.6}
\contentsline {figure}{\numberline {7}{\ignorespaces Motores a serem utilizados na estação TXM para imageamento 2D e 3D. }}{27}{figure.2.7}
\contentsline {figure}{\numberline {8}{\ignorespaces Imageamento 2D de uma folha realizada na SXS, sendo a energia do fóton do feixe incidente de 2500eV. }}{32}{figure.2.8}
\contentsline {figure}{\numberline {9}{\ignorespaces Representação do sistema lógico de uma varredura \textit {step by step}. a)Sincronização ideal entre a movimentação e aquisição. b)Sincronização real entre os sistemas representando os possíveis pontos de latência.}}{33}{figure.2.9}
\contentsline {figure}{\numberline {10}{\ignorespaces Visão Geral de uma IOC.}}{35}{figure.3.10}
\contentsline {figure}{\numberline {11}{\ignorespaces GUI do CSStudio para controle dos experimentos na TXM.}}{38}{figure.3.11}
\contentsline {figure}{\numberline {12}{\ignorespaces Exemplo de execução do script Vambora.sh.}}{39}{figure.3.12}
\contentsline {figure}{\numberline {13}{\ignorespaces Scripts responsáveis pela execução do experiemnto de mapeamento 2D por fluorescência na TXM.}}{41}{figure.3.13}
\contentsline {figure}{\numberline {14}{\ignorespaces Testes do desempenho da PV \relax \unhbox \voidb@x \hbox {}\bgroup \catcode `\ \active \let \GenericInfo { }{LaTeX Info: Active EOL character found while output routine is active \MessageBreak This may be a bug in a package file you are using\par } \par \def \GenericInfo { }{LaTeX Info: Active EOL character found while output routine is active \MessageBreak This may be a bug in a package file you are using\par } {\global \let \egroup \GenericError { }{LaTeX Error: \relax \unhbox \voidb@x \hbox {}\bgroup \catcode `\ \active \let \GenericInfo { }{LaTeX Info: Active EOL character found while output routine is active \MessageBreak This may be a bug in a package file you are using\par } \par \def \GenericInfo { }{LaTeX Info: Active EOL character found while output routine is active \MessageBreak This may be a bug in a package file you are using\par } {\global \let \egroup \GenericError { }{LaTeX Error: \verb ended by end of line}{See the LaTeX manual or LaTeX Companion for explanation.}{Try typing <return> to proceed.\MessageBreak If that doesn't work, type X <return> to quit.}}\let \@makeother \ \\\{\}\$\&\#\^\_\%\~\"\.\<\>\normalfont \ttfamilyFB \hyphenchar \font \m@ne \let \do@noligs \`\<\>\,\'\-\let \do@noligs \`\<\>\,\'\-\language \l@nohyphenation \let \reserved@d =*\def ,{\par }\def \reserved@b {\catcode `\ \active \let \GenericInfo { }{LaTeX Info: Active space character found while output routine is active \MessageBreak This may be a bug in a package file you are using\par } \unhbox \voidb@x \penalty \@M \ \sfcode `\.\@m \sfcode `\@m \sfcode `\!\@m \sfcode `\:\@m \sfcode `\mskip \thickmuskip \@m \sfcode `\,\@m \par }\futurelet \@let@token \let \begingroup \let \begingroup \let } } } } 
\contentsline {figure}{\numberline {15}{\ignorespaces Envio do comando "parar". Os gráficos se referem as posições dos eixos X, Y e Z respectivamente. }}{48}{figure.5.15}
