\relax 
\providecommand\hyper@newdestlabel[2]{}
\providecommand*{\memsetcounter}[2]{}
\providecommand\HyperFirstAtBeginDocument{\AtBeginDocument}
\HyperFirstAtBeginDocument{\ifx\hyper@anchor\@undefined
\global\let\oldcontentsline\contentsline
\gdef\contentsline#1#2#3#4{\oldcontentsline{#1}{#2}{#3}}
\global\let\oldnewlabel\newlabel
\gdef\newlabel#1#2{\newlabelxx{#1}#2}
\gdef\newlabelxx#1#2#3#4#5#6{\oldnewlabel{#1}{{#2}{#3}}}
\AtEndDocument{\ifx\hyper@anchor\@undefined
\let\contentsline\oldcontentsline
\let\newlabel\oldnewlabel
\fi}
\fi}
\global\let\hyper@last\relax 
\gdef\HyperFirstAtBeginDocument#1{#1}
\providecommand*\HyPL@Entry[1]{}
\catcode `"\active 
\catcode `<\active 
\catcode `>\active 
\@nameuse{es@quoting}
\citation{abnt-url-package=url}
\HyPL@Entry{0<</S/D>>}
\@writefile{toc}{\changetocdepth  {4}}
\babel@aux{brazil}{}
\HyPL@Entry{1<</S/D>>}
\@writefile{toc}{\setlength  {\cftchapterindent }{\cftlastnumwidth } \setlength  {\cftchapternumwidth }{2em}}
\@writefile{toc}{\setlength  {\cftchapterindent }{\cftlastnumwidth } \setlength  {\cftchapternumwidth }{2em}}
\@writefile{toc}{\setlength  {\cftchapterindent }{\cftlastnumwidth } \setlength  {\cftchapternumwidth }{2em}}
\@writefile{toc}{\setlength  {\cftchapterindent }{\cftlastnumwidth } \setlength  {\cftchapternumwidth }{2em}}
\@writefile{toc}{\contentsline {chapter}{Introdução}{5}{chapter*.2}}
\@writefile{toc}{\vspace  {\cftbeforechapterskip }}
\bibdata{abntex2-options,elementos-postextuais/referencias}
\@writefile{toc}{\setlength  {\cftchapterindent }{\cftlastnumwidth } \setlength  {\cftchapternumwidth }{2em}}
\@writefile{toc}{\contentsline {chapter}{Conclusão}{6}{chapter*.4}}
\@writefile{toc}{\vspace  {\cftbeforechapterskip }}
\@switch{AP\^ENDICE} 
\@writefile{toc}{\setlength  {\cftpartindent }{\cftlastnumwidth } \setlength  {\cftpartnumwidth }{2em}}
\@writefile{toc}{\cftinsert {A}}
\@writefile{toc}{\contentsline {part}{\uppercase {Ap\^endices}}{7}{section*.6}}
\@writefile{toc}{\setlength  {\cftchapterindent }{0em} \setlength  {\cftchapternumwidth }{\cftlastnumwidth }}
\@writefile{toc}{\setlength  {\cftchapterindent }{\cftlastnumwidth } \setlength  {\cftchapternumwidth }{2em}}
\@writefile{toc}{\cftinsert {A}}
\@writefile{toc}{\contentsline {appendix}{\chapternumberline {A}\MakeTextUppercase  {Quisque libero justo}}{8}{appendix.A}}
\@writefile{toc}{\setlength  {\cftchapterindent }{0em} \setlength  {\cftchapternumwidth }{\cftlastnumwidth }}
\@writefile{toc}{\setlength  {\cftchapterindent }{\cftlastnumwidth } \setlength  {\cftchapternumwidth }{2em}}
\@writefile{toc}{\cftinsert {A}}
\@writefile{toc}{\contentsline {appendix}{\chapternumberline {B}\MakeTextUppercase  {Nullam elementum urna vel imperdiet sodales elit ipsum pharetra ligula ac pretium ante justo a nulla curabitur tristique arcu eu metus}}{9}{appendix.B}}
\@writefile{toc}{\cftinsert {AAA}}
\@switch{ANEXO} 
\@writefile{toc}{\setlength  {\cftpartindent }{\cftlastnumwidth } \setlength  {\cftpartnumwidth }{2em}}
\@writefile{toc}{\cftinsert {A}}
\@writefile{toc}{\contentsline {part}{\uppercase {Anexos}}{10}{section*.7}}
\@writefile{toc}{\setlength  {\cftchapterindent }{0em} \setlength  {\cftchapternumwidth }{\cftlastnumwidth }}
\@writefile{toc}{\setlength  {\cftchapterindent }{\cftlastnumwidth } \setlength  {\cftchapternumwidth }{2em}}
\@writefile{toc}{\cftinsert {A}}
\@writefile{toc}{\contentsline {appendix}{\chapternumberline {A}\MakeTextUppercase  {Morbi ultrices rutrum lorem.}}{11}{appendix.anexochapback.1}}
\@writefile{toc}{\setlength  {\cftchapterindent }{0em} \setlength  {\cftchapternumwidth }{\cftlastnumwidth }}
\@writefile{toc}{\setlength  {\cftchapterindent }{\cftlastnumwidth } \setlength  {\cftchapternumwidth }{2em}}
\@writefile{toc}{\cftinsert {A}}
\@writefile{toc}{\contentsline {appendix}{\chapternumberline {B}\MakeTextUppercase  {Cras non urna sed feugiat cum sociis natoque penatibus et magnis dis parturient montes nascetur ridiculus mus}}{12}{appendix.anexochapback.2}}
\@writefile{toc}{\setlength  {\cftchapterindent }{0em} \setlength  {\cftchapternumwidth }{\cftlastnumwidth }}
\@writefile{toc}{\setlength  {\cftchapterindent }{\cftlastnumwidth } \setlength  {\cftchapternumwidth }{2em}}
\@writefile{toc}{\cftinsert {A}}
\@writefile{toc}{\contentsline {appendix}{\chapternumberline {C}\MakeTextUppercase  {Fusce facilisis lacinia dui}}{13}{appendix.anexochapback.3}}
\@writefile{toc}{\vspace  {\cftbeforechapterskip }}
\newlabel{LastPage}{{}{13}{}{page.13}{}}
\xdef\lastpage@lastpage{13}
\xdef\lastpage@lastpageHy{13}
\bibstyle{abntex2-alf}
\memsetcounter{lastsheet}{14}
\memsetcounter{lastpage}{13}
