\relax 
\providecommand\hyper@newdestlabel[2]{}
\providecommand*{\memsetcounter}[2]{}
\providecommand\HyperFirstAtBeginDocument{\AtBeginDocument}
\HyperFirstAtBeginDocument{\ifx\hyper@anchor\@undefined
\global\let\oldcontentsline\contentsline
\gdef\contentsline#1#2#3#4{\oldcontentsline{#1}{#2}{#3}}
\global\let\oldnewlabel\newlabel
\gdef\newlabel#1#2{\newlabelxx{#1}#2}
\gdef\newlabelxx#1#2#3#4#5#6{\oldnewlabel{#1}{{#2}{#3}}}
\AtEndDocument{\ifx\hyper@anchor\@undefined
\let\contentsline\oldcontentsline
\let\newlabel\oldnewlabel
\fi}
\fi}
\global\let\hyper@last\relax 
\gdef\HyperFirstAtBeginDocument#1{#1}
\providecommand*\HyPL@Entry[1]{}
\catcode `"\active 
\catcode `<\active 
\catcode `>\active 
\@nameuse{es@quoting}
\citation{abnt-url-package=url}
\HyPL@Entry{0<</S/D>>}
\@writefile{toc}{\changetocdepth  {4}}
\babel@aux{brazil}{}
\HyPL@Entry{1<</S/D>>}
\@writefile{toc}{\setlength  {\cftchapterindent }{\cftlastnumwidth } \setlength  {\cftchapternumwidth }{2em}}
\@writefile{toc}{\setlength  {\cftchapterindent }{\cftlastnumwidth } \setlength  {\cftchapternumwidth }{2em}}
\@writefile{toc}{\setlength  {\cftchapterindent }{\cftlastnumwidth } \setlength  {\cftchapternumwidth }{2em}}
\@writefile{toc}{\setlength  {\cftchapterindent }{\cftlastnumwidth } \setlength  {\cftchapternumwidth }{2em}}
\@writefile{toc}{\contentsline {chapter}{Introdução}{14}{chapter*.8}}
\@input{elementos-textuais/capitulo-1.aux}
\@input{elementos-textuais/capitulo-2.aux}
\@input{elementos-textuais/capitulo-3.aux}
\@input{elementos-textuais/capitulo-4.aux}
\citation{motor_record}
\citation{amptek_mca}
\citation{amptek_mca_git}
\citation{vortex_git}
\citation{metrologia}
\@writefile{toc}{\setlength  {\cftchapterindent }{0em} \setlength  {\cftchapternumwidth }{\cftlastnumwidth }}
\@writefile{toc}{\contentsline {chapter}{\chapternumberline {5}\MakeTextUppercase  {Resultados}}{46}{chapter.5}}
\@writefile{toc}{\contentsline {section}{\numberline {5.1}Instalação e integração dos dispositivos a linha de Luz SXS}{46}{section.5.1}}
\@writefile{brf}{\backcite{motor_record}{{46}{5.1}{section.5.1}}}
\@writefile{brf}{\backcite{amptek_mca}{{46}{5.1}{section.5.1}}}
\@writefile{brf}{\backcite{amptek_mca_git}{{46}{5.1}{section.5.1}}}
\@writefile{brf}{\backcite{vortex_git}{{46}{5.1}{section.5.1}}}
\@writefile{toc}{\contentsline {section}{\numberline {5.2}Configurações do Aparato Experimental}{46}{section.5.2}}
\@writefile{brf}{\backcite{metrologia}{{47}{5.2}{section.5.2}}}
\@writefile{toc}{\contentsline {section}{\numberline {5.3}Aquisição}{47}{section.5.3}}
\@writefile{toc}{\contentsline {subsection}{\numberline {5.3.1}Controle da Aquisição}{47}{subsection.5.3.1}}
\@writefile{lof}{\contentsline {figure}{\numberline {20}{\ignorespaces Adaptação que conecta os cabos coaxiais as saídas do detector Amptek. As regiões demarcadas são as regiões que originam o mau contado.}}{48}{figure.5.20}}
\newlabel{maucontact}{{\M@TitleReference {20}{Controle da Aquisição}}{48}{Adaptação que conecta os cabos coaxiais as saídas do detector Amptek. As regiões demarcadas são as regiões que originam o mau contado}{figure.5.20}{}}
\@writefile{toc}{\contentsline {subsection}{\numberline {5.3.2}Visualização e Interface Gráfica}{49}{subsection.5.3.2}}
\@writefile{lof}{\contentsline {figure}{\numberline {21}{\ignorespaces Interface gráfica desenvolvida em PyQt para monitoramento dos detector de fluorescência a ser utilizado no experimento. A região em azul representa a ROI configurada pelo usuário. }}{50}{figure.5.21}}
\newlabel{mca}{{\M@TitleReference {21}{Visualização e Interface Gráfica}}{50}{Interface gráfica desenvolvida em PyQt para monitoramento dos detector de fluorescência a ser utilizado no experimento. A região em azul representa a ROI configurada pelo usuário}{figure.5.21}{}}
\@writefile{toc}{\contentsline {section}{\numberline {5.4}Movimentação e Controle}{50}{section.5.4}}
\@writefile{toc}{\contentsline {subsection}{\numberline {5.4.1}Análise dos modos de movimento do Hexápode}{50}{subsection.5.4.1}}
\@writefile{toc}{\contentsline {subsubsection}{\numberline {5.4.1.1}Movimento Único}{50}{subsubsection.5.4.1.1}}
\@writefile{lof}{\contentsline {figure}{\numberline {22}{\ignorespaces Interface gráfica da Symetrie onde é possível enviar as posições alvo para o Hexápode e executar o movimento. }}{51}{figure.5.22}}
\newlabel{comandoteste}{{\M@TitleReference {22}{Movimento Único}}{51}{Interface gráfica da Symetrie onde é possível enviar as posições alvo para o Hexápode e executar o movimento}{figure.5.22}{}}
\@writefile{lof}{\contentsline {figure}{\numberline {23}{\ignorespaces Testes do desempenho da PV modo de movimento. Os gráficos se referem as posições dos eixos X, Y e Z respectivamente. }}{52}{figure.5.23}}
\newlabel{comandoteste5}{{\M@TitleReference {23}{Movimento Único}}{52}{Testes do desempenho da PV modo de movimento. Os gráficos se referem as posições dos eixos X, Y e Z respectivamente}{figure.5.23}{}}
\@writefile{lof}{\contentsline {figure}{\numberline {24}{\ignorespaces Envio do comando "parar". Os gráficos se referem as posições dos eixos X, Y e Z respectivamente. }}{53}{figure.5.24}}
\newlabel{comandoteste2}{{\M@TitleReference {24}{Movimento Único}}{53}{Envio do comando "parar". Os gráficos se referem as posições dos eixos X, Y e Z respectivamente}{figure.5.24}{}}
\@writefile{toc}{\contentsline {subsubsection}{\numberline {5.4.1.2}Movimento Sequencial}{53}{subsubsection.5.4.1.2}}
\@writefile{lof}{\contentsline {figure}{\numberline {25}{\ignorespaces Interface gráfica da Symetrie onde é possível enviar as posições alvo para o Hexápode e executar o movimento. }}{54}{figure.5.25}}
\newlabel{comandoteste}{{\M@TitleReference {25}{Movimento Sequencial}}{54}{Interface gráfica da Symetrie onde é possível enviar as posições alvo para o Hexápode e executar o movimento}{figure.5.25}{}}
\newlabel{estacao_TXM}{{\M@TitleReference {5.4.1.2}{Movimento Sequencial}}{55}{Movimento Sequencial}{figure.5.25}{}}
\@writefile{lof}{\contentsline {figure}{\numberline {26}{\ignorespaces  Sinal de saída do controlador do Hexápode que pode ser usado como trigger para o detector.(a)$t_{mes}$ e $t_{stab}$ são definidos pelo usuário e o tempo de movimentação é proporcional ao passo. (b) Sinal de saída do controlador medido por um osciloscópio para um mesh de 10x10 pixels de 10$\mu m$ de passo $t_{mes}=$600ms,$t_{stab}=$500ms $t_{mov}~$400ms}}{55}{figure.5.26}}
\newlabel{TTL_hexa}{{\M@TitleReference {26}{ Sinal de saída do controlador do Hexápode que pode ser usado como trigger para o detector.(a)$t_{mes}$ e $t_{stab}$ são definidos pelo usuário e o tempo de movimentação é proporcional ao passo. (b) Sinal de saída do controlador medido por um osciloscópio para um mesh de 10x10 pixels de 10$\mu m$ de passo $t_{mes}=$600ms,$t_{stab}=$500ms $t_{mov}~$400ms}}{55}{ Sinal de saída do controlador do Hexápode que pode ser usado como trigger para o detector.(a)$t_{mes}$ e $t_{stab}$ são definidos pelo usuário e o tempo de movimentação é proporcional ao passo. (b) Sinal de saída do controlador medido por um osciloscópio para um mesh de 10x10 pixels de 10$\mu m$ de passo $t_{mes}=$600ms,$t_{stab}=$500ms $t_{mov}~$400ms}{figure.5.26}{}}
\newlabel{TTL_osc}{{\M@TitleReference {26}{ Sinal de saída do controlador do Hexápode que pode ser usado como trigger para o detector.(a)$t_{mes}$ e $t_{stab}$ são definidos pelo usuário e o tempo de movimentação é proporcional ao passo. (b) Sinal de saída do controlador medido por um osciloscópio para um mesh de 10x10 pixels de 10$\mu m$ de passo $t_{mes}=$600ms,$t_{stab}=$500ms $t_{mov}~$400ms}}{55}{ Sinal de saída do controlador do Hexápode que pode ser usado como trigger para o detector.(a)$t_{mes}$ e $t_{stab}$ são definidos pelo usuário e o tempo de movimentação é proporcional ao passo. (b) Sinal de saída do controlador medido por um osciloscópio para um mesh de 10x10 pixels de 10$\mu m$ de passo $t_{mes}=$600ms,$t_{stab}=$500ms $t_{mov}~$400ms}{figure.5.26}{}}
\@writefile{lof}{\contentsline {figure}{\numberline {27}{\ignorespaces Varredura 2D de passo 20$\mu m$ nos eixos Y e Z. Em (a) o eixo X na trajetória da tabela é fixo na posição 0, já as posições salvas na memória da IOC para todos os eixos é a posição 0.Em (b) o eixo X na trajetória da tabela é fixo na posição 2, já as posições salvas na memória da IOC para todos os eixos é a posição 0. }}{56}{figure.5.27}}
\newlabel{seqerro}{{\M@TitleReference {27}{Movimento Sequencial}}{56}{Varredura 2D de passo 20$\mu m$ nos eixos Y e Z. Em (a) o eixo X na trajetória da tabela é fixo na posição 0, já as posições salvas na memória da IOC para todos os eixos é a posição 0.Em (b) o eixo X na trajetória da tabela é fixo na posição 2, já as posições salvas na memória da IOC para todos os eixos é a posição 0}{figure.5.27}{}}
\@writefile{toc}{\contentsline {subsection}{\numberline {5.4.2}Comparando a estrutura do \textit  {Vambora.sh} e \textit  {HexapodeClass.py}}{56}{subsection.5.4.2}}
\@writefile{lof}{\contentsline {figure}{\numberline {28}{\ignorespaces Esquema lógico dos scripts responsáveis pela execução do experimento de mapeamento 2D por fluorescência na TXM.}}{58}{figure.5.28}}
\newlabel{fluxo_anterior}{{\M@TitleReference {28}{Comparando a estrutura do \textit  {Vambora.sh} e \textit  {HexapodeClass.py}}}{58}{Esquema lógico dos scripts responsáveis pela execução do experimento de mapeamento 2D por fluorescência na TXM}{figure.5.28}{}}
\@writefile{toc}{\contentsline {subsection}{\numberline {5.4.3}Propostas para a movimentação nos eixos}{59}{subsection.5.4.3}}
\@writefile{toc}{\contentsline {subsection}{\numberline {5.4.4}Scripts e Modos de Movimento Propostos}{59}{subsection.5.4.4}}
\@writefile{toc}{\contentsline {subsubsection}{\numberline {5.4.4.1}Proposta 1:Classe$\_$Hexapode.py}{59}{subsubsection.5.4.4.1}}
\@writefile{lof}{\contentsline {figure}{\numberline {29}{\ignorespaces Esquema lógico dos scripts das soluções propostas para o mapeamento 2D por fluorescência na TXM.}}{60}{figure.5.29}}
\newlabel{fluxo_novo}{{\M@TitleReference {29}{Propostas para a movimentação nos eixos}}{60}{Esquema lógico dos scripts das soluções propostas para o mapeamento 2D por fluorescência na TXM}{figure.5.29}{}}
\@writefile{toc}{\contentsline {subsubsection}{\numberline {5.4.4.2}Proposta 2: rumo$\_$ao$\_$hexa.py}{61}{subsubsection.5.4.4.2}}
\@writefile{lof}{\contentsline {figure}{\numberline {30}{\ignorespaces Movimento combinado do Planar e do Hexápode para gerar a varredura em ângulo.}}{61}{figure.5.30}}
\newlabel{mov_aero}{{\M@TitleReference {30}{Proposta 2: rumo$\_$ao$\_$hexa.py}}{61}{Movimento combinado do Planar e do Hexápode para gerar a varredura em ângulo}{figure.5.30}{}}
\@writefile{toc}{\contentsline {subsection}{\numberline {5.4.5}Comparação do desempenho em Tempo Morto dos Scripts Anteriores com os Scripts Propostos}{62}{subsection.5.4.5}}
\@writefile{lof}{\contentsline {figure}{\numberline {31}{\ignorespaces  Valores médios do tempo morto por passo para um mesh de 10x10 pixels com diferentes tamanhos de passo.}}{63}{figure.5.31}}
\newlabel{graficofinal}{{\M@TitleReference {31}{Comparação do desempenho em Tempo Morto dos Scripts Anteriores com os Scripts Propostos}}{63}{Valores médios do tempo morto por passo para um mesh de 10x10 pixels com diferentes tamanhos de passo}{figure.5.31}{}}
\@writefile{toc}{\contentsline {section}{\numberline {5.5}Resultados Preliminares de Imageamento}{63}{section.5.5}}
\@writefile{toc}{\contentsline {subsection}{\numberline {5.5.1}Resultados Preliminares de Aquisições realizadas com as soluções propostas para o imageamento 2D}{63}{subsection.5.5.1}}
\@writefile{lof}{\contentsline {figure}{\numberline {32}{\ignorespaces  \textbf  {a)} Grade de 40 μm de ouro em uma lâmina de vidro.\textbf  {b)} Imagem da grade de ouro vista pelo microscópio óptico \textbf  {c)} mapeamento por fluorescência}}{64}{figure.5.32}}
\newlabel{strip}{{\M@TitleReference {32}{Resultados Preliminares de Aquisições realizadas com as soluções propostas para o imageamento 2D}}{64}{\textbf {a)} Grade de 40 μm de ouro em uma lâmina de vidro.\textbf {b)} Imagem da grade de ouro vista pelo microscópio óptico \textbf {c)} mapeamento por fluorescência}{figure.5.32}{}}
\@writefile{lof}{\contentsline {figure}{\numberline {33}{\ignorespaces  \textbf  {a)}Capilar de kapton com cristais de NaCl+KCl .\textbf  {b)} Imagem da capilar vista pelo microscópio óptico para fazer o alinhamento \textbf  {c)} mapeamento por fluorescência}}{64}{figure.5.33}}
\newlabel{capilar2D}{{\M@TitleReference {33}{Resultados Preliminares de Aquisições realizadas com as soluções propostas para o imageamento 2D}}{64}{\textbf {a)}Capilar de kapton com cristais de NaCl+KCl .\textbf {b)} Imagem da capilar vista pelo microscópio óptico para fazer o alinhamento \textbf {c)} mapeamento por fluorescência}{figure.5.33}{}}
\@writefile{toc}{\contentsline {subsection}{\numberline {5.5.2}Resultados Preliminares de Tomografia por Fluorescência}{65}{subsection.5.5.2}}
\newlabel{ccd}{{\M@TitleReference {5.5.2}{Considerações sobre a Montagem}}{65}{Considerações sobre a Montagem}{section*.14}{}}
\@writefile{lof}{\contentsline {figure}{\numberline {34}{\ignorespaces  Sistema de Aquisição projetado para analisar o sinal de transmissão. (a) Jogo ótico da Optique Peter MICRX com lente objetivas de 2x, 4x e 10x com uma CCD(Manta G-146). (b) teste do posicionamento da CCD sobre o perfil de alúminio na TXM.}}{65}{figure.5.34}}
\newlabel{ccds}{{\M@TitleReference {34}{ Sistema de Aquisição projetado para analisar o sinal de transmissão. (a) Jogo ótico da Optique Peter MICRX com lente objetivas de 2x, 4x e 10x com uma CCD(Manta G-146). (b) teste do posicionamento da CCD sobre o perfil de alúminio na TXM.}}{65}{ Sistema de Aquisição projetado para analisar o sinal de transmissão. (a) Jogo ótico da Optique Peter MICRX com lente objetivas de 2x, 4x e 10x com uma CCD(Manta G-146). (b) teste do posicionamento da CCD sobre o perfil de alúminio na TXM}{figure.5.34}{}}
\newlabel{tomo_ccd}{{\M@TitleReference {34}{ Sistema de Aquisição projetado para analisar o sinal de transmissão. (a) Jogo ótico da Optique Peter MICRX com lente objetivas de 2x, 4x e 10x com uma CCD(Manta G-146). (b) teste do posicionamento da CCD sobre o perfil de alúminio na TXM.}}{65}{ Sistema de Aquisição projetado para analisar o sinal de transmissão. (a) Jogo ótico da Optique Peter MICRX com lente objetivas de 2x, 4x e 10x com uma CCD(Manta G-146). (b) teste do posicionamento da CCD sobre o perfil de alúminio na TXM}{figure.5.34}{}}
\@writefile{lof}{\contentsline {figure}{\numberline {35}{\ignorespaces  Adaptação feita para realização dos testes do sistema de tomografia.(a) Os cabos do Hexápode suspensos para diminuir o torque do goniômetro (b) teflon sobre os estágios da Aerotech para diminuir o atrito dos cabos de alimentação do Hexápode durante o movimento.}}{66}{figure.5.35}}
\newlabel{gambiarra}{{\M@TitleReference {35}{Considerações sobre a Montagem}}{66}{Adaptação feita para realização dos testes do sistema de tomografia.(a) Os cabos do Hexápode suspensos para diminuir o torque do goniômetro (b) teflon sobre os estágios da Aerotech para diminuir o atrito dos cabos de alimentação do Hexápode durante o movimento}{figure.5.35}{}}
\newlabel{ccds}{{\M@TitleReference {35}{ Adaptação feita para realização dos testes do sistema de tomografia.(a) Os cabos do Hexápode suspensos para diminuir o torque do goniômetro (b) teflon sobre os estágios da Aerotech para diminuir o atrito dos cabos de alimentação do Hexápode durante o movimento.}}{66}{\label {gambiarra} Adaptação feita para realização dos testes do sistema de tomografia.(a) Os cabos do Hexápode suspensos para diminuir o torque do goniômetro (b) teflon sobre os estágios da Aerotech para diminuir o atrito dos cabos de alimentação do Hexápode durante o movimento}{figure.5.35}{}}
\newlabel{tomo_ccd}{{\M@TitleReference {35}{ Adaptação feita para realização dos testes do sistema de tomografia.(a) Os cabos do Hexápode suspensos para diminuir o torque do goniômetro (b) teflon sobre os estágios da Aerotech para diminuir o atrito dos cabos de alimentação do Hexápode durante o movimento.}}{66}{\label {gambiarra} Adaptação feita para realização dos testes do sistema de tomografia.(a) Os cabos do Hexápode suspensos para diminuir o torque do goniômetro (b) teflon sobre os estágios da Aerotech para diminuir o atrito dos cabos de alimentação do Hexápode durante o movimento}{figure.5.35}{}}
\@writefile{lof}{\contentsline {figure}{\numberline {36}{\ignorespaces  Fotodiodo fixado atrás da amostra no mesmo eixo do feixe para assim detectar o sinal de trasmissão.}}{67}{figure.5.36}}
\newlabel{fotum}{{\M@TitleReference {36}{Considerações sobre a Montagem}}{67}{Fotodiodo fixado atrás da amostra no mesmo eixo do feixe para assim detectar o sinal de trasmissão}{figure.5.36}{}}
\@writefile{lof}{\contentsline {figure}{\numberline {37}{\ignorespaces  Conceito do sistema de controle da Tomografia}}{68}{figure.5.37}}
\newlabel{tomiga}{{\M@TitleReference {37}{Considerações sobre o sistema de movimentação e controle}}{68}{Conceito do sistema de controle da Tomografia}{figure.5.37}{}}
\@writefile{lof}{\contentsline {figure}{\numberline {38}{\ignorespaces  Projeções em diferentes ângulos do capilar de Kapton com cristais de NaCl+KCl.}}{69}{figure.5.38}}
\newlabel{tomara}{{\M@TitleReference {38}{Resultados do teste do sistema de tomografia}}{69}{Projeções em diferentes ângulos do capilar de Kapton com cristais de NaCl+KCl}{figure.5.38}{}}
\citation{fedel2018python}
\@writefile{toc}{\contentsline {section}{\numberline {5.6}Integração e Interface de Controle}{70}{section.5.6}}
\@writefile{brf}{\backcite{fedel2018python}{{70}{5.6}{section.5.6}}}
\@writefile{lof}{\contentsline {figure}{\numberline {39}{\ignorespaces  Abas da interface responsáveis pelos inputs e controle dos experimentos de imageamento na TXM.(a) Imageamento 2D (b) Tomografia.}}{71}{figure.5.39}}
\newlabel{exp}{{\M@TitleReference {39}{Integração e Interface de Controle}}{71}{Abas da interface responsáveis pelos inputs e controle dos experimentos de imageamento na TXM.(a) Imageamento 2D (b) Tomografia}{figure.5.39}{}}
\newlabel{meshido}{{\M@TitleReference {39}{ Abas da interface responsáveis pelos inputs e controle dos experimentos de imageamento na TXM.(a) Imageamento 2D (b) Tomografia.}}{71}{\label {exp} Abas da interface responsáveis pelos inputs e controle dos experimentos de imageamento na TXM.(a) Imageamento 2D (b) Tomografia}{figure.5.39}{}}
\newlabel{tomado}{{\M@TitleReference {39}{ Abas da interface responsáveis pelos inputs e controle dos experimentos de imageamento na TXM.(a) Imageamento 2D (b) Tomografia.}}{71}{\label {exp} Abas da interface responsáveis pelos inputs e controle dos experimentos de imageamento na TXM.(a) Imageamento 2D (b) Tomografia}{figure.5.39}{}}
\@writefile{lof}{\contentsline {figure}{\numberline {40}{\ignorespaces  Abas da interface responsáveis pelo monitoramento do estado dos dectetores de fluorescência (a)Amptek e (b)Vortex. Além de monitorar, pelas interfaces é possível configurar as ROIs a serem analisadasntrole dos experimentos de imageamento na TXM.}}{72}{figure.5.40}}
\newlabel{fluoridos}{{\M@TitleReference {40}{Integração e Interface de Controle}}{72}{Abas da interface responsáveis pelo monitoramento do estado dos dectetores de fluorescência (a)Amptek e (b)Vortex. Além de monitorar, pelas interfaces é possível configurar as ROIs a serem analisadasntrole dos experimentos de imageamento na TXM}{figure.5.40}{}}
\newlabel{amptek}{{\M@TitleReference {40}{ Abas da interface responsáveis pelo monitoramento do estado dos dectetores de fluorescência (a)Amptek e (b)Vortex. Além de monitorar, pelas interfaces é possível configurar as ROIs a serem analisadasntrole dos experimentos de imageamento na TXM.}}{72}{\label {fluoridos} Abas da interface responsáveis pelo monitoramento do estado dos dectetores de fluorescência (a)Amptek e (b)Vortex. Além de monitorar, pelas interfaces é possível configurar as ROIs a serem analisadasntrole dos experimentos de imageamento na TXM}{figure.5.40}{}}
\newlabel{vortex}{{\M@TitleReference {40}{ Abas da interface responsáveis pelo monitoramento do estado dos dectetores de fluorescência (a)Amptek e (b)Vortex. Além de monitorar, pelas interfaces é possível configurar as ROIs a serem analisadasntrole dos experimentos de imageamento na TXM.}}{72}{\label {fluoridos} Abas da interface responsáveis pelo monitoramento do estado dos dectetores de fluorescência (a)Amptek e (b)Vortex. Além de monitorar, pelas interfaces é possível configurar as ROIs a serem analisadasntrole dos experimentos de imageamento na TXM}{figure.5.40}{}}
\@writefile{lof}{\contentsline {figure}{\numberline {41}{\ignorespaces  Abas da interface responsáveis pelo monitoramento do estado dos principais motores de alinhamento de amostra na TXM. (a)Planar e Goniômetro da Aerotech.(b)Hexápode. Além de monitorar status de erro e outras propriedades é por estas abas que se faz o alinhamento das amostras perante ao feixe.}}{73}{figure.5.41}}
\newlabel{motoca}{{\M@TitleReference {41}{Integração e Interface de Controle}}{73}{Abas da interface responsáveis pelo monitoramento do estado dos principais motores de alinhamento de amostra na TXM. (a)Planar e Goniômetro da Aerotech.(b)Hexápode. Além de monitorar status de erro e outras propriedades é por estas abas que se faz o alinhamento das amostras perante ao feixe}{figure.5.41}{}}
\newlabel{motoca_plana}{{\M@TitleReference {41}{ Abas da interface responsáveis pelo monitoramento do estado dos principais motores de alinhamento de amostra na TXM. (a)Planar e Goniômetro da Aerotech.(b)Hexápode. Além de monitorar status de erro e outras propriedades é por estas abas que se faz o alinhamento das amostras perante ao feixe.}}{73}{\label {motoca} Abas da interface responsáveis pelo monitoramento do estado dos principais motores de alinhamento de amostra na TXM. (a)Planar e Goniômetro da Aerotech.(b)Hexápode. Além de monitorar status de erro e outras propriedades é por estas abas que se faz o alinhamento das amostras perante ao feixe}{figure.5.41}{}}
\newlabel{camnhao}{{\M@TitleReference {41}{ Abas da interface responsáveis pelo monitoramento do estado dos principais motores de alinhamento de amostra na TXM. (a)Planar e Goniômetro da Aerotech.(b)Hexápode. Além de monitorar status de erro e outras propriedades é por estas abas que se faz o alinhamento das amostras perante ao feixe.}}{73}{\label {motoca} Abas da interface responsáveis pelo monitoramento do estado dos principais motores de alinhamento de amostra na TXM. (a)Planar e Goniômetro da Aerotech.(b)Hexápode. Além de monitorar status de erro e outras propriedades é por estas abas que se faz o alinhamento das amostras perante ao feixe}{figure.5.41}{}}
\@writefile{toc}{\setlength  {\cftchapterindent }{0em} \setlength  {\cftchapternumwidth }{\cftlastnumwidth }}
\@writefile{toc}{\contentsline {chapter}{\chapternumberline {6}\MakeTextUppercase  {Perspectivas Futuras}}{74}{chapter.6}}
\@writefile{lof}{\contentsline {figure}{\numberline {42}{\ignorespaces  Comparação entre o desempenho do modo de movimento \textit  {step by step} e o \textit  {fly-scan}.}}{76}{figure.6.42}}
\newlabel{flybi}{{\M@TitleReference {42}{Sistema de Movimentação e Controle}}{76}{Comparação entre o desempenho do modo de movimento \textit {step by step} e o \textit {fly-scan}}{figure.6.42}{}}
\@writefile{toc}{\vspace  {\cftbeforechapterskip }}
\@writefile{toc}{\setlength  {\cftchapterindent }{\cftlastnumwidth } \setlength  {\cftchapternumwidth }{2em}}
\@writefile{toc}{\contentsline {chapter}{CONCLUSÃO}{77}{chapter*.24}}
\bibdata{abntex2-options,elementos-postextuais/referencias}
\@writefile{toc}{\vspace  {\cftbeforechapterskip }}
\bibcite{artigo_SXS}{Abbate et al. 1999}
\bibciteEXPL{artigo_SXS}{Abbate et al.}
\bibciteIMPL{artigo_SXS}{ABBATE et al.}
\bibciteYEAR{artigo_SXS}{1999}
\bibcite{dalton_presentation}{Abdala 2018}
\bibciteEXPL{dalton_presentation}{Abdala}
\bibciteIMPL{dalton_presentation}{ABDALA}
\bibciteYEAR{dalton_presentation}{2018}
\bibcite{amptek}{AMPTEK 2018}
\bibciteEXPL{amptek}{AMPTEK}
\bibciteIMPL{amptek}{AMPTEK}
\bibciteYEAR{amptek}{2018}
\bibcite{metrologia}{BUENO e CALIARI 2018}
\bibciteEXPL{metrologia}{BUENO e CALIARI}
\bibciteIMPL{metrologia}{BUENO; CALIARI}
\bibciteYEAR{metrologia}{2018}
\bibcite{LINAC}{Cardoso, Resende e Marques 2011}
\bibciteEXPL{LINAC}{Cardoso, Resende e Marques}
\bibciteIMPL{LINAC}{CARDOSO; RESENDE; MARQUES}
\bibciteYEAR{LINAC}{2011}
\bibcite{loka}{Cherry et al. 2004}
\bibciteEXPL{loka}{Cherry et al.}
\bibciteIMPL{loka}{CHERRY et al.}
\bibciteYEAR{loka}{2004}
\bibcite{CNPEM_site_home}{CNPEM 2018}
\bibciteEXPL{CNPEM_site_home}{CNPEM}
\bibciteIMPL{CNPEM_site_home}{CNPEM}
\bibciteYEAR{CNPEM_site_home}{2018}
\bibcite{linha-sxs_cnpem_site}{CNPEM-SXS 2018}
\bibciteEXPL{linha-sxs_cnpem_site}{CNPEM-SXS}
\bibciteIMPL{linha-sxs_cnpem_site}{CNPEM-SXS}
\bibciteYEAR{linha-sxs_cnpem_site}{2018}
\bibcite{epics_site}{EPICS-ANL 2018}
\bibciteEXPL{epics_site}{EPICS-ANL}
\bibciteIMPL{epics_site}{EPICS-ANL}
\bibciteYEAR{epics_site}{2018a}
\bibcite{motor_record}{EPICS-ANL 2018}
\bibciteEXPL{motor_record}{EPICS-ANL}
\bibciteIMPL{motor_record}{EPICS-ANL}
\bibciteYEAR{motor_record}{2018b}
\bibcite{imagem_anel_png}{ESTADÃO 2018}
\bibciteEXPL{imagem_anel_png}{ESTADÃO}
\bibciteIMPL{imagem_anel_png}{ESTADÃO}
\bibciteYEAR{imagem_anel_png}{2018}
\bibcite{fedel2018python}{Fedel et al. 2018}
\bibciteEXPL{fedel2018python}{Fedel et al.}
\bibciteIMPL{fedel2018python}{FEDEL et al.}
\bibciteYEAR{fedel2018python}{2018}
\bibcite{maroto}{Fessler 2009}
\bibciteEXPL{maroto}{Fessler}
\bibciteIMPL{maroto}{FESSLER}
\bibciteYEAR{maroto}{2009}
\bibcite{SINCRTRON-RADIATION}{Garc{\'\i }a 2016}
\bibciteEXPL{SINCRTRON-RADIATION}{Garc{\'\i }a}
\bibciteIMPL{SINCRTRON-RADIATION}{GARC{\'I}A}
\bibciteYEAR{SINCRTRON-RADIATION}{2016}
\@writefile{toc}{\setlength  {\cftchapterindent }{\cftlastnumwidth } \setlength  {\cftchapternumwidth }{2em}}
\@writefile{toc}{\contentsline {chapter}{\uppercase {Refer\^encias}}{79}{section*.27}}
\bibcite{vortex_site}{HITACHI 2018}
\bibciteEXPL{vortex_site}{HITACHI}
\bibciteIMPL{vortex_site}{HITACHI}
\bibciteYEAR{vortex_site}{2018}
\bibcite{LNLS_site_home}{LNLS 2018}
\bibciteEXPL{LNLS_site_home}{LNLS}
\bibciteIMPL{LNLS_site_home}{LNLS}
\bibciteYEAR{LNLS_site_home}{2018}
\bibcite{bordak}{Mesquita 2011}
\bibciteEXPL{bordak}{Mesquita}
\bibciteIMPL{bordak}{MESQUITA}
\bibciteYEAR{bordak}{2011}
\bibcite{pyepicsapres}{NEWVILLE 2014}
\bibciteEXPL{pyepicsapres}{NEWVILLE}
\bibciteIMPL{pyepicsapres}{NEWVILLE}
\bibciteYEAR{pyepicsapres}{2014}
\bibcite{pyepicsapres_site}{NEWVILLE 2016}
\bibciteEXPL{pyepicsapres_site}{NEWVILLE}
\bibciteIMPL{pyepicsapres_site}{NEWVILLE}
\bibciteYEAR{pyepicsapres_site}{2016}
\bibcite{vortex_git}{NEWVILLE 2018}
\bibciteEXPL{vortex_git}{NEWVILLE}
\bibciteIMPL{vortex_git}{NEWVILLE}
\bibciteYEAR{vortex_git}{2018}
\bibcite{toma}{O'Sullivan et al. 2017}
\bibciteEXPL{toma}{O'Sullivan et al.}
\bibciteIMPL{toma}{O'SULLIVAN et al.}
\bibciteYEAR{toma}{2017}
\bibcite{tomagem}{PEREIRA e Lopes 2011}
\bibciteEXPL{tomagem}{PEREIRA e Lopes}
\bibciteIMPL{tomagem}{PEREIRA; LOPES}
\bibciteYEAR{tomagem}{2011}
\bibcite{carnauba}{Perez et al. 2018}
\bibciteEXPL{carnauba}{Perez et al.}
\bibciteIMPL{carnauba}{PEREZ et al.}
\bibciteYEAR{carnauba}{2018}
\bibcite{livro_solo}{Peth et al. 2008}
\bibciteEXPL{livro_solo}{Peth et al.}
\bibciteIMPL{livro_solo}{PETH et al.}
\bibciteYEAR{livro_solo}{2008}
\bibcite{scaler}{Piton et al. 2012}
\bibciteEXPL{scaler}{Piton et al.}
\bibciteIMPL{scaler}{PITON et al.}
\bibciteYEAR{scaler}{2012}
\bibcite{amptek_mca}{RIVERS 2017}
\bibciteEXPL{amptek_mca}{RIVERS}
\bibciteIMPL{amptek_mca}{RIVERS}
\bibciteYEAR{amptek_mca}{2017}
\bibcite{amptek_mca_git}{RIVERS 2018}
\bibciteEXPL{amptek_mca_git}{RIVERS}
\bibciteIMPL{amptek_mca_git}{RIVERS}
\bibciteYEAR{amptek_mca_git}{2018}
\bibcite{Py4Syn}{Slepicka et al. 2015}
\bibciteEXPL{Py4Syn}{Slepicka et al.}
\bibciteIMPL{Py4Syn}{SLEPICKA et al.}
\bibciteYEAR{Py4Syn}{2015}
\bibcite{SXS-SHAREPOINT}{VICENTIN 2018}
\bibciteEXPL{SXS-SHAREPOINT}{VICENTIN}
\bibciteIMPL{SXS-SHAREPOINT}{VICENTIN}
\bibciteYEAR{SXS-SHAREPOINT}{2018}
\bibcite{CDR}{VICENTIN 2016}
\bibciteEXPL{CDR}{VICENTIN}
\bibciteIMPL{CDR}{VICENTIN}
\bibciteYEAR{CDR}{2016}
\@writefile{toc}{\cftinsert {AAA}}
\@switch{ANEXO} 
\@writefile{toc}{\setlength  {\cftpartindent }{\cftlastnumwidth } \setlength  {\cftpartnumwidth }{2em}}
\@writefile{toc}{\cftinsert {A}}
\@writefile{toc}{\contentsline {part}{\uppercase {Anexos}}{82}{section*.28}}
\citation{CDR}
\@writefile{toc}{\setlength  {\cftchapterindent }{0em} \setlength  {\cftchapternumwidth }{\cftlastnumwidth }}
\@writefile{toc}{\setlength  {\cftchapterindent }{\cftlastnumwidth } \setlength  {\cftchapternumwidth }{2em}}
\@writefile{toc}{\cftinsert {A}}
\@writefile{toc}{\contentsline {appendix}{\chapternumberline {A}\MakeTextUppercase  {Informações sobre os motores}}{84}{appendix.anexochapback.1}}
\@writefile{brf}{\backcite{CDR}{{84}{1}{Hfootnote.8}}}
\newlabel{LastPage}{{}{85}{}{page.85}{}}
\xdef\lastpage@lastpage{85}
\xdef\lastpage@lastpageHy{85}
\bibstyle{abntex2-alf}
\memsetcounter{lastsheet}{86}
\memsetcounter{lastpage}{85}
