\relax 
\providecommand\hyper@newdestlabel[2]{}
\citation{CNPEM_site_home}
\citation{LNLS_site_home}
\citation{LNLS_site_home}
\@writefile{toc}{\setlength  {\cftchapterindent }{0em} \setlength  {\cftchapternumwidth }{\cftlastnumwidth }}
\@writefile{toc}{\contentsline {chapter}{\chapternumberline {1}\MakeTextUppercase  {CNPEM}}{17}{chapter.1}}
\newlabel{cap_exemplos}{{\M@TitleReference {1}{\MakeTextUppercase  {CNPEM}}}{17}{CNPEM}{chapter.1}{}}
\@writefile{brf}{\backcite{CNPEM_site_home}{{17}{1}{chapter.1}}}
\@writefile{brf}{\backcite{LNLS_site_home}{{17}{1}{chapter.1}}}
\@writefile{brf}{\backcite{LNLS_site_home}{{17}{1}{chapter.1}}}
\@writefile{toc}{\contentsline {section}{\numberline {1.1}Fonte de Luz síncrotron}{17}{section.1.1}}
\citation{SINCRTRON-RADIATION}
\citation{LINAC}
\citation{imagem_anel_png}
\citation{imagem_anel_png}
\citation{LINAC}
\@writefile{brf}{\backcite{SINCRTRON-RADIATION}{{18}{1.1}{section.1.1}}}
\@writefile{brf}{\backcite{LINAC}{{18}{1.1}{section.1.1}}}
\@writefile{lof}{\contentsline {figure}{\numberline {1}{\ignorespaces Representação esquemática do UVX no LNLS. }}{18}{figure.1.1}}
\newlabel{imagem_anel}{{\M@TitleReference {1}{Fonte de Luz síncrotron}}{18}{Representação esquemática do UVX no LNLS}{figure.1.1}{}}
\@writefile{brf}{\backcite{imagem_anel_png}{{18}{1}{figure.1.1}}}
\@writefile{brf}{\backcite{LINAC}{{18}{1.1}{figure.1.1}}}
\citation{artigo_SXS}
\citation{SXS-SHAREPOINT}
\citation{SXS-SHAREPOINT}
\citation{SXS-SHAREPOINT}
\citation{bordak}
\citation{linha-sxs_cnpem_site}
\citation{linha-sxs_cnpem_site}
\@writefile{toc}{\contentsline {subsection}{\numberline {1.1.1}Linha SXS (\textit  {Soft X-Ray Spectroscopy})}{19}{subsection.1.1.1}}
\@writefile{brf}{\backcite{artigo_SXS}{{19}{1.1.1}{subsection.1.1.1}}}
\@writefile{brf}{\backcite{SXS-SHAREPOINT}{{19}{1.1.1}{subsection.1.1.1}}}
\newlabel{linha_SXS}{{\M@TitleReference {1.1.1}{Linha SXS (\textit  {Soft X-Ray Spectroscopy})}}{19}{Linha SXS (\textit {Soft X-Ray Spectroscopy})}{subsection.1.1.1}{}}
\@writefile{lof}{\contentsline {figure}{\numberline {2}{\ignorespaces Linha SXS}}{19}{figure.1.2}}
\newlabel{foto_linha}{{\M@TitleReference {2}{Linha SXS}}{19}{Linha SXS}{figure.1.2}{}}
\@writefile{lof}{\contentsline {figure}{\numberline {3}{\ignorespaces Representação esquemática da linha SXS.}}{19}{figure.1.3}}
\newlabel{esquema_linha}{{\M@TitleReference {3}{Representação esquemática da linha SXS.}}{19}{Representação esquemática da linha SXS}{figure.1.3}{}}
\@writefile{brf}{\backcite{SXS-SHAREPOINT}{{19}{3}{figure.1.3}}}
\@writefile{brf}{\backcite{bordak}{{19}{1}{Hfootnote.1}}}
\@writefile{lof}{\contentsline {figure}{\numberline {4}{\ignorespaces Fluxo de fótons na amostra de acordo com o cristal do monocromador escolhido. }}{20}{figure.1.4}}
\newlabel{fluxo_linha}{{\M@TitleReference {4}{Linha SXS (\textit  {Soft X-Ray Spectroscopy})}}{20}{Fluxo de fótons na amostra de acordo com o cristal do monocromador escolhido}{figure.1.4}{}}
\@writefile{brf}{\backcite{linha-sxs_cnpem_site}{{20}{4}{figure.1.4}}}
\@setckpt{elementos-textuais/capitulo-1}{
\setcounter{page}{22}
\setcounter{equation}{0}
\setcounter{enumi}{0}
\setcounter{enumii}{0}
\setcounter{enumiii}{0}
\setcounter{enumiv}{0}
\setcounter{footnote}{1}
\setcounter{mpfootnote}{0}
\setcounter{@memmarkcntra}{-1}
\setcounter{storedpagenumber}{1}
\setcounter{book}{0}
\setcounter{part}{0}
\setcounter{chapter}{1}
\setcounter{section}{1}
\setcounter{subsection}{1}
\setcounter{subsubsection}{0}
\setcounter{paragraph}{0}
\setcounter{subparagraph}{0}
\setcounter{@ppsavesec}{0}
\setcounter{@ppsaveapp}{0}
\setcounter{vslineno}{0}
\setcounter{poemline}{0}
\setcounter{modulo@vs}{0}
\setcounter{memfvsline}{0}
\setcounter{verse}{0}
\setcounter{chrsinstr}{0}
\setcounter{poem}{0}
\setcounter{newflo@tctr}{4}
\setcounter{@contsubnum}{0}
\setcounter{maxsecnumdepth}{4}
\setcounter{sidefootnote}{0}
\setcounter{pagenote}{0}
\setcounter{pagenoteshadow}{0}
\setcounter{memfbvline}{0}
\setcounter{bvlinectr}{0}
\setcounter{cp@cntr}{0}
\setcounter{ism@mctr}{0}
\setcounter{xsm@mctr}{0}
\setcounter{csm@mctr}{0}
\setcounter{ksm@mctr}{0}
\setcounter{xksm@mctr}{0}
\setcounter{cksm@mctr}{0}
\setcounter{msm@mctr}{0}
\setcounter{xmsm@mctr}{0}
\setcounter{cmsm@mctr}{0}
\setcounter{bsm@mctr}{0}
\setcounter{workm@mctr}{0}
\setcounter{sheetsequence}{23}
\setcounter{lastsheet}{88}
\setcounter{lastpage}{87}
\setcounter{figure}{4}
\setcounter{lofdepth}{1}
\setcounter{table}{0}
\setcounter{lotdepth}{1}
\setcounter{Item}{0}
\setcounter{Hfootnote}{1}
\setcounter{memhycontfloat}{0}
\setcounter{Hpagenote}{0}
\setcounter{Hy@AnnotLevel}{0}
\setcounter{bookmark@seq@number}{0}
\setcounter{FBcaption@count}{0}
\setcounter{abntex@bookmarkcounter}{9}
\setcounter{alineasi}{0}
\setcounter{alineasii}{0}
\setcounter{subalineasi}{0}
\setcounter{incisosi}{0}
\setcounter{lstnumber}{1}
\setcounter{ABCIaux}{0}
\setcounter{ABCImax}{0}
\setcounter{lips@count}{0}
\setcounter{float@type}{8}
\setcounter{AM@survey}{0}
\setcounter{section@level}{2}
\setcounter{lstlisting}{0}
}
