\relax 
\providecommand\hyper@newdestlabel[2]{}
\@writefile{toc}{\setlength  {\cftchapterindent }{0em} \setlength  {\cftchapternumwidth }{\cftlastnumwidth }}
\@writefile{toc}{\contentsline {chapter}{\chapternumberline {5}\MakeTextUppercase  {Resultados}}{45}{chapter.5}}
\@writefile{toc}{\contentsline {section}{\numberline {5.1}Instalação e integração dos dispositivos a linha de Luz SXS}{45}{section.5.1}}
\@writefile{toc}{\contentsline {section}{\numberline {5.2}Imageamento 2D por florescência}{45}{section.5.2}}
\@writefile{toc}{\contentsline {subsection}{\numberline {5.2.1}Configurações do Aparato Experimental}{45}{subsection.5.2.1}}
\@writefile{toc}{\contentsline {subsection}{\numberline {5.2.2}Movimentação e Controle}{46}{subsection.5.2.2}}
\@writefile{toc}{\contentsline {subsubsection}{\numberline {5.2.2.1}A) Pontos Críticos dos modos de movimento do Hexápode}{46}{subsubsection.5.2.2.1}}
\@writefile{toc}{\contentsline {paragraph}{\numberline {5.2.2.1.1}Movimento Único}{46}{paragraph.5.2.2.1.1}}
\@writefile{lof}{\contentsline {figure}{\numberline {14}{\ignorespaces Testes do desempenho da PV \relax \unhbox \voidb@x \hbox {}\bgroup \catcode `\ \active \let \GenericInfo  {            }{LaTeX Info: Active EOL character found while output routine is active \MessageBreak This may be a bug in a package file you are using\par } \par \def \GenericInfo  {            }{LaTeX Info: Active EOL character found while output routine is active \MessageBreak This may be a bug in a package file you are using\par } {\global \let \egroup \GenericError  {               }{LaTeX Error: \relax \unhbox \voidb@x \hbox {}\bgroup \catcode `\ \active \let \GenericInfo  {            }{LaTeX Info: Active EOL character found while output routine is active \MessageBreak This may be a bug in a package file you are using\par } \par \def \GenericInfo  {            }{LaTeX Info: Active EOL character found while output routine is active \MessageBreak This may be a bug in a package file you are using\par } {\global \let \egroup \GenericError  {               }{LaTeX Error: \verb ended by end of line}{See the LaTeX manual or LaTeX Companion for explanation.}{Try typing  <return>  to proceed.\MessageBreak If that doesn't work, type  X <return>  to quit.}}\let \@makeother \ \\\{\}\$\&\#\^\_\%\~\"\.\<\>\normalfont  \ttfamilyFB  \hyphenchar \font \m@ne \let \do@noligs \`\<\>\,\'\-\let \do@noligs \`\<\>\,\'\-\language \l@nohyphenation \let \reserved@d =*\def ,{\par }\def \reserved@b {\catcode `\ \active \let \GenericInfo  {            }{LaTeX Info: Active space character found while output routine is active \MessageBreak This may be a bug in a package file you are using\par } \unhbox \voidb@x \penalty \@M \ \sfcode `\.\@m \sfcode `\@m \sfcode `\!\@m \sfcode `\:\@m \sfcode `\mskip \thickmuskip \@m \sfcode `\,\@m \par }\futurelet \@let@token \let \begingroup \let \begingroup \let  } } } } } 
\newlabel{comandoteste}{{\M@TitleReference {14}{Movimento Único}}{47}{Testes do desempenho da PV \verb |modo_de_movimento|. Os gráficos se referem as posições dos eixos X, Y e Z respectivamente}{figure.5.14}{}}
\@writefile{lof}{\contentsline {figure}{\numberline {15}{\ignorespaces Envio do comando "parar". Os gráficos se referem as posições dos eixos X, Y e Z respectivamente. }}{48}{figure.5.15}}
\newlabel{comandoteste2}{{\M@TitleReference {15}{Movimento Único}}{48}{Envio do comando "parar". Os gráficos se referem as posições dos eixos X, Y e Z respectivamente}{figure.5.15}{}}
\@setckpt{elementos-textuais/capitulo-5}{
\setcounter{page}{49}
\setcounter{equation}{0}
\setcounter{enumi}{0}
\setcounter{enumii}{0}
\setcounter{enumiii}{0}
\setcounter{enumiv}{0}
\setcounter{footnote}{0}
\setcounter{mpfootnote}{0}
\setcounter{@memmarkcntra}{-1}
\setcounter{storedpagenumber}{1}
\setcounter{book}{0}
\setcounter{part}{1}
\setcounter{chapter}{5}
\setcounter{section}{2}
\setcounter{subsection}{2}
\setcounter{subsubsection}{1}
\setcounter{paragraph}{1}
\setcounter{subparagraph}{0}
\setcounter{@ppsavesec}{0}
\setcounter{@ppsaveapp}{0}
\setcounter{vslineno}{0}
\setcounter{poemline}{0}
\setcounter{modulo@vs}{0}
\setcounter{memfvsline}{0}
\setcounter{verse}{0}
\setcounter{chrsinstr}{0}
\setcounter{poem}{0}
\setcounter{newflo@tctr}{4}
\setcounter{@contsubnum}{0}
\setcounter{maxsecnumdepth}{4}
\setcounter{sidefootnote}{0}
\setcounter{pagenote}{0}
\setcounter{pagenoteshadow}{0}
\setcounter{memfbvline}{0}
\setcounter{bvlinectr}{0}
\setcounter{cp@cntr}{0}
\setcounter{ism@mctr}{0}
\setcounter{xsm@mctr}{0}
\setcounter{csm@mctr}{0}
\setcounter{ksm@mctr}{0}
\setcounter{xksm@mctr}{0}
\setcounter{cksm@mctr}{0}
\setcounter{msm@mctr}{0}
\setcounter{xmsm@mctr}{0}
\setcounter{cmsm@mctr}{0}
\setcounter{bsm@mctr}{0}
\setcounter{workm@mctr}{0}
\setcounter{sheetsequence}{50}
\setcounter{lastsheet}{56}
\setcounter{lastpage}{55}
\setcounter{figure}{15}
\setcounter{lofdepth}{1}
\setcounter{table}{0}
\setcounter{lotdepth}{1}
\setcounter{Item}{0}
\setcounter{Hfootnote}{9}
\setcounter{memhycontfloat}{0}
\setcounter{Hpagenote}{0}
\setcounter{Hy@AnnotLevel}{0}
\setcounter{bookmark@seq@number}{0}
\setcounter{FBcaption@count}{0}
\setcounter{abntex@bookmarkcounter}{15}
\setcounter{alineasi}{0}
\setcounter{alineasii}{0}
\setcounter{subalineasi}{0}
\setcounter{incisosi}{0}
\setcounter{lstnumber}{1}
\setcounter{ABCIaux}{0}
\setcounter{ABCImax}{0}
\setcounter{lips@count}{0}
\setcounter{section@level}{4}
\setcounter{lstlisting}{0}
}
