\relax 
\providecommand\hyper@newdestlabel[2]{}
\citation{epics_site}
\citation{fedel2018python}
\@writefile{toc}{\setlength  {\cftchapterindent }{0em} \setlength  {\cftchapternumwidth }{\cftlastnumwidth }}
\@writefile{toc}{\contentsline {chapter}{\chapternumberline {3}\MakeTextUppercase  {Sistemas de controle dos experimentos na estação experimental TXM}}{33}{chapter.3}}
\@writefile{toc}{\contentsline {section}{\numberline {3.1}Sistemas de controle no LNLS}{33}{section.3.1}}
\@writefile{toc}{\contentsline {subsection}{\numberline {3.1.1}EPICS}{33}{subsection.3.1.1}}
\@writefile{brf}{\backcite{epics_site}{{33}{3.1.1}{subsection.3.1.1}}}
\citation{epics_site}
\citation{epics_site}
\@writefile{brf}{\backcite{fedel2018python}{{34}{3.1.1}{subsection.3.1.1}}}
\@writefile{toc}{\contentsline {subsubsection}{\numberline {3.1.1.1}Exemplo conceitual de Input/Output Controller(IOC)}{34}{subsubsection.3.1.1.1}}
\@writefile{lof}{\contentsline {figure}{\numberline {16}{\ignorespaces Visão Geral de uma IOC.}}{34}{figure.3.16}}
\newlabel{IOC_esquema}{{\M@TitleReference {16}{Exemplo conceitual de Input/Output Controller(IOC)}}{34}{Visão Geral de uma IOC}{figure.3.16}{}}
\@writefile{brf}{\backcite{epics_site}{{34}{16}{figure.3.16}}}
\citation{pyepicsapres}
\citation{pyepicsapres_site}
\citation{Py4Syn}
\citation{fedel2018python}
\@writefile{toc}{\contentsline {subsection}{\numberline {3.1.2}Python}{36}{subsection.3.1.2}}
\@writefile{brf}{\backcite{pyepicsapres}{{36}{3.1.2}{subsection.3.1.2}}}
\@writefile{brf}{\backcite{pyepicsapres_site}{{36}{3.1.2}{subsection.3.1.2}}}
\@writefile{brf}{\backcite{Py4Syn}{{36}{3.1.2}{subsection.3.1.2}}}
\citation{scaler}
\@writefile{brf}{\backcite{fedel2018python}{{37}{3.1.2}{subsection.3.1.2}}}
\@writefile{toc}{\contentsline {section}{\numberline {3.2}Sistema de controle da varredura na TXM}{37}{section.3.2}}
\newlabel{cuzao}{{\M@TitleReference {3.2}{Sistema de controle da varredura na TXM}}{37}{Sistema de controle da varredura na TXM}{section.3.2}{}}
\@writefile{brf}{\backcite{scaler}{{37}{3.2}{section.3.2}}}
\@writefile{lof}{\contentsline {figure}{\numberline {17}{\ignorespaces  Sistema de controle da varredura TXM com os scripts Vambora e HexapodeClass.py .}}{38}{figure.3.17}}
\newlabel{scalado}{{\M@TitleReference {17}{Sistema de controle da varredura na TXM}}{38}{Sistema de controle da varredura TXM com os scripts Vambora e HexapodeClass.py }{figure.3.17}{}}
\@writefile{toc}{\contentsline {section}{\numberline {3.3}Scripts de varredura na TXM}{38}{section.3.3}}
\newlabel{sec_scripts}{{\M@TitleReference {3.3}{Scripts de varredura na TXM}}{38}{Scripts de varredura na TXM}{section.3.3}{}}
\@writefile{lof}{\contentsline {figure}{\numberline {18}{\ignorespaces GUI do CSStudio para controle dos experimentos na TXM.}}{39}{figure.3.18}}
\newlabel{CSStudio}{{\M@TitleReference {18}{Scripts de varredura na TXM}}{39}{GUI do CSStudio para controle dos experimentos na TXM}{figure.3.18}{}}
\@writefile{toc}{\contentsline {subsection}{\numberline {3.3.1}\textit  {Vambora.sh}}{40}{subsection.3.3.1}}
\@writefile{lof}{\contentsline {figure}{\numberline {19}{\ignorespaces   Exemplo de execução do script \textit  {Vambora.sh}.(a) Entrada de Valores no Script. (b) Output. O monitoramento da posição e aquisição é feito pelo próprio terminal, sem janela gráfica.}}{40}{figure.3.19}}
\newlabel{Input_vambora}{{\M@TitleReference {19}{\textit  {Vambora.sh}}}{40}{Exemplo de execução do script \textit {Vambora.sh}.(a) Entrada de Valores no Script. (b) Output. O monitoramento da posição e aquisição é feito pelo próprio terminal, sem janela gráfica}{figure.3.19}{}}
\newlabel{input_vamb}{{\M@TitleReference {19}{  Exemplo de execução do script \textit  {Vambora.sh}.(a) Entrada de Valores no Script. (b) Output. O monitoramento da posição e aquisição é feito pelo próprio terminal, sem janela gráfica.}}{40}{ \label {Input_vambora} Exemplo de execução do script \textit {Vambora.sh}.(a) Entrada de Valores no Script. (b) Output. O monitoramento da posição e aquisição é feito pelo próprio terminal, sem janela gráfica}{figure.3.19}{}}
\newlabel{output_vamb}{{\M@TitleReference {19}{  Exemplo de execução do script \textit  {Vambora.sh}.(a) Entrada de Valores no Script. (b) Output. O monitoramento da posição e aquisição é feito pelo próprio terminal, sem janela gráfica.}}{40}{ \label {Input_vambora} Exemplo de execução do script \textit {Vambora.sh}.(a) Entrada de Valores no Script. (b) Output. O monitoramento da posição e aquisição é feito pelo próprio terminal, sem janela gráfica}{figure.3.19}{}}
\@writefile{toc}{\contentsline {subsection}{\numberline {3.3.2}\textit  {HexapodeClass.py}}{41}{subsection.3.3.2}}
\@setckpt{elementos-textuais/capitulo-3}{
\setcounter{page}{43}
\setcounter{equation}{0}
\setcounter{enumi}{6}
\setcounter{enumii}{0}
\setcounter{enumiii}{0}
\setcounter{enumiv}{0}
\setcounter{footnote}{3}
\setcounter{mpfootnote}{0}
\setcounter{@memmarkcntra}{-1}
\setcounter{storedpagenumber}{1}
\setcounter{book}{0}
\setcounter{part}{0}
\setcounter{chapter}{3}
\setcounter{section}{3}
\setcounter{subsection}{2}
\setcounter{subsubsection}{0}
\setcounter{paragraph}{0}
\setcounter{subparagraph}{0}
\setcounter{@ppsavesec}{0}
\setcounter{@ppsaveapp}{0}
\setcounter{vslineno}{0}
\setcounter{poemline}{0}
\setcounter{modulo@vs}{0}
\setcounter{memfvsline}{0}
\setcounter{verse}{0}
\setcounter{chrsinstr}{0}
\setcounter{poem}{0}
\setcounter{newflo@tctr}{4}
\setcounter{@contsubnum}{0}
\setcounter{maxsecnumdepth}{4}
\setcounter{sidefootnote}{0}
\setcounter{pagenote}{0}
\setcounter{pagenoteshadow}{0}
\setcounter{memfbvline}{0}
\setcounter{bvlinectr}{0}
\setcounter{cp@cntr}{0}
\setcounter{ism@mctr}{0}
\setcounter{xsm@mctr}{0}
\setcounter{csm@mctr}{0}
\setcounter{ksm@mctr}{0}
\setcounter{xksm@mctr}{0}
\setcounter{cksm@mctr}{0}
\setcounter{msm@mctr}{0}
\setcounter{xmsm@mctr}{0}
\setcounter{cmsm@mctr}{0}
\setcounter{bsm@mctr}{0}
\setcounter{workm@mctr}{0}
\setcounter{sheetsequence}{44}
\setcounter{lastsheet}{88}
\setcounter{lastpage}{87}
\setcounter{figure}{19}
\setcounter{lofdepth}{1}
\setcounter{table}{0}
\setcounter{lotdepth}{1}
\setcounter{Item}{6}
\setcounter{Hfootnote}{7}
\setcounter{memhycontfloat}{0}
\setcounter{Hpagenote}{0}
\setcounter{Hy@AnnotLevel}{0}
\setcounter{bookmark@seq@number}{0}
\setcounter{FBcaption@count}{0}
\setcounter{abntex@bookmarkcounter}{9}
\setcounter{alineasi}{0}
\setcounter{alineasii}{0}
\setcounter{subalineasi}{0}
\setcounter{incisosi}{0}
\setcounter{lstnumber}{1}
\setcounter{ABCIaux}{0}
\setcounter{ABCImax}{0}
\setcounter{lips@count}{0}
\setcounter{float@type}{8}
\setcounter{AM@survey}{0}
\setcounter{section@level}{2}
\setcounter{lstlisting}{0}
}
