\relax 
\providecommand\hyper@newdestlabel[2]{}
\citation{livro_solo}
\citation{CDR}
\citation{carnauba}
\citation{dalton_presentation}
\@writefile{toc}{\setlength  {\cftchapterindent }{0em} \setlength  {\cftchapternumwidth }{\cftlastnumwidth }}
\@writefile{toc}{\contentsline {chapter}{\chapternumberline {2}\MakeTextUppercase  {TXM e as Técnicas de Imageamento}}{22}{chapter.2}}
\newlabel{cap_TXM}{{\M@TitleReference {2}{\MakeTextUppercase  {TXM e as Técnicas de Imageamento}}}{22}{TXM e as Técnicas de Imageamento}{chapter.2}{}}
\@writefile{toc}{\contentsline {section}{\numberline {2.1}Motivação Científica da Estação TXM}{22}{section.2.1}}
\@writefile{brf}{\backcite{livro_solo}{{22}{2.1}{section.2.1}}}
\@writefile{brf}{\backcite{CDR}{{22}{2.1}{section.2.1}}}
\@writefile{brf}{\backcite{carnauba}{{22}{2.1}{section.2.1}}}
\@writefile{brf}{\backcite{dalton_presentation}{{22}{2.1}{section.2.1}}}
\citation{SXS-SHAREPOINT}
\citation{SXS-SHAREPOINT}
\citation{SXS-SHAREPOINT}
\citation{SXS-SHAREPOINT}
\citation{imagem_anel_png}
\citation{imagem_anel_png}
\@writefile{toc}{\contentsline {subsection}{\numberline {2.1.1}Estação \textit  {Tender X-Ray Microscope} (TXM)}{23}{subsection.2.1.1}}
\newlabel{estacao_TXM7}{{\M@TitleReference {2.1.1}{Estação \textit  {Tender X-Ray Microscope} (TXM)}}{23}{Estação \textit {Tender X-Ray Microscope} (TXM)}{subsection.2.1.1}{}}
\@writefile{lof}{\contentsline {figure}{\numberline {5}{\ignorespaces  (a) Projeto da estação TXM para a técnica de Tomografia por fluorescência de raios X. Nesta imagem somente não está representado o conjunto da CCD que será usado para transmissão. (b) Estação TXM em Fevereiro de 2018, antes da instação dos estágios da Aerotech.}}{23}{figure.2.5}}
\newlabel{esquema_txm}{{\M@TitleReference {5}{ (a) Projeto da estação TXM para a técnica de Tomografia por fluorescência de raios X. Nesta imagem somente não está representado o conjunto da CCD que será usado para transmissão. (b) Estação TXM em Fevereiro de 2018, antes da instação dos estágios da Aerotech.}}{23}{ (a) Projeto da estação TXM para a técnica de Tomografia por fluorescência de raios X. Nesta imagem somente não está representado o conjunto da CCD que será usado para transmissão. (b) Estação TXM em Fevereiro de 2018, antes da instação dos estágios da Aerotech}{figure.2.5}{}}
\newlabel{txm_antes}{{\M@TitleReference {5}{ (a) Projeto da estação TXM para a técnica de Tomografia por fluorescência de raios X. Nesta imagem somente não está representado o conjunto da CCD que será usado para transmissão. (b) Estação TXM em Fevereiro de 2018, antes da instação dos estágios da Aerotech.}}{23}{ (a) Projeto da estação TXM para a técnica de Tomografia por fluorescência de raios X. Nesta imagem somente não está representado o conjunto da CCD que será usado para transmissão. (b) Estação TXM em Fevereiro de 2018, antes da instação dos estágios da Aerotech}{figure.2.5}{}}
\@writefile{brf}{\backcite{SXS-SHAREPOINT}{{23}{5}{figure.2.5}}}
\newlabel{amostra_TXM}{{\M@TitleReference {2.1.1}{Estação \textit  {Tender X-Ray Microscope} (TXM)}}{24}{Estação \textit {Tender X-Ray Microscope} (TXM)}{figure.2.5}{}}
\@writefile{lof}{\contentsline {figure}{\numberline {6}{\ignorespaces  (a) Exemplo da posição da amostra frente a janela de berílio e ao detector. Devido à distância focal do policapilar ser de 3$mm$, e a atenuação do sinal por parte do ar, a configuração experimental exige que o detector, amostra e janela de berílio estejam bem próximos. (b) Esquema do suporte do policapilar junto a janela de berílio por onde o feixe da linha sai.}}{24}{figure.2.6}}
\newlabel{esquema_amostra}{{\M@TitleReference {6}{ (a) Exemplo da posição da amostra frente a janela de berílio e ao detector. Devido à distância focal do policapilar ser de 3$mm$, e a atenuação do sinal por parte do ar, a configuração experimental exige que o detector, amostra e janela de berílio estejam bem próximos. (b) Esquema do suporte do policapilar junto a janela de berílio por onde o feixe da linha sai.}}{24}{ (a) Exemplo da posição da amostra frente a janela de berílio e ao detector. Devido à distância focal do policapilar ser de 3$mm$, e a atenuação do sinal por parte do ar, a configuração experimental exige que o detector, amostra e janela de berílio estejam bem próximos. (b) Esquema do suporte do policapilar junto a janela de berílio por onde o feixe da linha sai}{figure.2.6}{}}
\newlabel{esquema_poli}{{\M@TitleReference {6}{ (a) Exemplo da posição da amostra frente a janela de berílio e ao detector. Devido à distância focal do policapilar ser de 3$mm$, e a atenuação do sinal por parte do ar, a configuração experimental exige que o detector, amostra e janela de berílio estejam bem próximos. (b) Esquema do suporte do policapilar junto a janela de berílio por onde o feixe da linha sai.}}{24}{ (a) Exemplo da posição da amostra frente a janela de berílio e ao detector. Devido à distância focal do policapilar ser de 3$mm$, e a atenuação do sinal por parte do ar, a configuração experimental exige que o detector, amostra e janela de berílio estejam bem próximos. (b) Esquema do suporte do policapilar junto a janela de berílio por onde o feixe da linha sai}{figure.2.6}{}}
\@writefile{brf}{\backcite{SXS-SHAREPOINT}{{24}{6}{figure.2.6}}}
\@writefile{lof}{\contentsline {figure}{\numberline {7}{\ignorespaces Motores à serem utilizados na estação TXM para imageamento 2D e 3D. }}{24}{figure.2.7}}
\newlabel{motores_imagem}{{\M@TitleReference {7}{Estação \textit  {Tender X-Ray Microscope} (TXM)}}{24}{Motores à serem utilizados na estação TXM para imageamento 2D e 3D}{figure.2.7}{}}
\@writefile{brf}{\backcite{imagem_anel_png}{{24}{7}{figure.2.7}}}
\@writefile{toc}{\contentsline {section}{\numberline {2.2}Imageamento 2D por fluorescência de raios X}{25}{section.2.2}}
\@writefile{lof}{\contentsline {figure}{\numberline {8}{\ignorespaces Imageamento 2D de uma folha realizada na SXS, sendo a energia do fóton do feixe incidente de 2500eV. }}{26}{figure.2.8}}
\newlabel{scan_esquema}{{\M@TitleReference {8}{Imageamento 2D por fluorescência de raios X}}{26}{Imageamento 2D de uma folha realizada na SXS, sendo a energia do fóton do feixe incidente de 2500eV}{figure.2.8}{}}
\citation{CDR}
\citation{tomagem}
\citation{tomagem}
\@writefile{toc}{\contentsline {subsection}{\numberline {2.2.1}Configuração Experimental}{27}{subsection.2.2.1}}
\@writefile{brf}{\backcite{CDR}{{27}{2.2.1}{subsection.2.2.1}}}
\@writefile{toc}{\contentsline {section}{\numberline {2.3}Tomografia por fluorescência de raios X}{27}{section.2.3}}
\citation{toma}
\citation{toma}
\citation{maroto}
\citation{maroto}
\citation{loka}
\citation{loka}
\@writefile{lof}{\contentsline {figure}{\numberline {9}{\ignorespaces Representação da aquisição da fluorescência e transmissão emitida pela amostra durante a tomografia por fluorescência de raios X.}}{28}{figure.2.9}}
\newlabel{tomagem}{{\M@TitleReference {9}{Tomografia por fluorescência de raios X}}{28}{Representação da aquisição da fluorescência e transmissão emitida pela amostra durante a tomografia por fluorescência de raios X}{figure.2.9}{}}
\@writefile{brf}{\backcite{tomagem}{{28}{9}{figure.2.9}}}
\@writefile{lof}{\contentsline {figure}{\numberline {10}{\ignorespaces Representação da medida de tomografia utilizando a análise por fluorescência de raios X. Na TXM deve ser realizada uma varredura 2D na amostra antes de rotacionar para o próximo ponto, criando uma projeção a cada ângulo. }}{28}{figure.2.10}}
\newlabel{tomiagem}{{\M@TitleReference {10}{Tomografia por fluorescência de raios X}}{28}{Representação da medida de tomografia utilizando a análise por fluorescência de raios X. Na TXM deve ser realizada uma varredura 2D na amostra antes de rotacionar para o próximo ponto, criando uma projeção a cada ângulo}{figure.2.10}{}}
\@writefile{brf}{\backcite{toma}{{28}{10}{figure.2.10}}}
\citation{maroto}
\citation{maroto}
\@writefile{brf}{\backcite{maroto}{{29}{2.3}{figure.2.10}}}
\@writefile{brf}{\backcite{maroto}{{29}{2.3}{figure.2.10}}}
\@writefile{lof}{\contentsline {figure}{\numberline {11}{\ignorespaces Representação da formação de um sinograma dada as medidas de projeção. Neste exemplo as projeções são unidimensionais da fluorescência e trasnmissão emitida pela amostra durante a tomografia por fluorescência de raios X.}}{29}{figure.2.11}}
\newlabel{sino}{{\M@TitleReference {11}{Tomografia por fluorescência de raios X}}{29}{Representação da formação de um sinograma dada as medidas de projeção. Neste exemplo as projeções são unidimensionais da fluorescência e trasnmissão emitida pela amostra durante a tomografia por fluorescência de raios X}{figure.2.11}{}}
\@writefile{brf}{\backcite{loka}{{29}{11}{figure.2.11}}}
\@writefile{lof}{\contentsline {figure}{\numberline {12}{\ignorespaces Representação da reconstrução de uma amostra de 128x128 pixels. As imagens mostram a relação entre o número de projeções necessárias para uma boa resolução na reconstrução.}}{30}{figure.2.12}}
\newlabel{tomei2}{{\M@TitleReference {12}{Tomografia por fluorescência de raios X}}{30}{Representação da reconstrução de uma amostra de 128x128 pixels. As imagens mostram a relação entre o número de projeções necessárias para uma boa resolução na reconstrução}{figure.2.12}{}}
\@writefile{brf}{\backcite{maroto}{{30}{12}{figure.2.12}}}
\@writefile{toc}{\contentsline {subsection}{\numberline {2.3.1}Configuração Experimental}{30}{subsection.2.3.1}}
\citation{amptek}
\citation{amptek}
\citation{vortex_site}
\citation{vortex_site}
\@writefile{lof}{\contentsline {figure}{\numberline {13}{\ignorespaces Detector Amptek X123}}{31}{figure.2.13}}
\newlabel{tomei}{{\M@TitleReference {13}{Detectores}}{31}{Detector Amptek X123}{figure.2.13}{}}
\@writefile{brf}{\backcite{amptek}{{31}{13}{figure.2.13}}}
\@writefile{lof}{\contentsline {figure}{\numberline {14}{\ignorespaces Detector Vortex ME4-Asic}}{31}{figure.2.14}}
\newlabel{tomei}{{\M@TitleReference {14}{Detectores}}{31}{Detector Vortex ME4-Asic}{figure.2.14}{}}
\@writefile{brf}{\backcite{vortex_site}{{31}{14}{figure.2.14}}}
\@writefile{toc}{\contentsline {section}{\numberline {2.4}Configuração do Modo de Aquisição e Movimento para Imageamento e Tomografia}{32}{section.2.4}}
\@writefile{lof}{\contentsline {figure}{\numberline {15}{\ignorespaces Representação do sistema lógico de uma varredura \textit  {step by step}. a)Sincronização ideal entre a movimentação e aquisição. b)Sincronização real entre os sistemas representando os possíveis pontos de latência.}}{32}{figure.2.15}}
\newlabel{varredura_esquema}{{\M@TitleReference {15}{Configuração do Modo de Aquisição e Movimento para Imageamento e Tomografia}}{32}{Representação do sistema lógico de uma varredura \textit {step by step}. a)Sincronização ideal entre a movimentação e aquisição. b)Sincronização real entre os sistemas representando os possíveis pontos de latência}{figure.2.15}{}}
\@setckpt{elementos-textuais/capitulo-2}{
\setcounter{page}{33}
\setcounter{equation}{0}
\setcounter{enumi}{0}
\setcounter{enumii}{0}
\setcounter{enumiii}{0}
\setcounter{enumiv}{0}
\setcounter{footnote}{3}
\setcounter{mpfootnote}{0}
\setcounter{@memmarkcntra}{-1}
\setcounter{storedpagenumber}{1}
\setcounter{book}{0}
\setcounter{part}{0}
\setcounter{chapter}{2}
\setcounter{section}{4}
\setcounter{subsection}{0}
\setcounter{subsubsection}{0}
\setcounter{paragraph}{0}
\setcounter{subparagraph}{0}
\setcounter{@ppsavesec}{0}
\setcounter{@ppsaveapp}{0}
\setcounter{vslineno}{0}
\setcounter{poemline}{0}
\setcounter{modulo@vs}{0}
\setcounter{memfvsline}{0}
\setcounter{verse}{0}
\setcounter{chrsinstr}{0}
\setcounter{poem}{0}
\setcounter{newflo@tctr}{4}
\setcounter{@contsubnum}{0}
\setcounter{maxsecnumdepth}{4}
\setcounter{sidefootnote}{0}
\setcounter{pagenote}{0}
\setcounter{pagenoteshadow}{0}
\setcounter{memfbvline}{0}
\setcounter{bvlinectr}{0}
\setcounter{cp@cntr}{0}
\setcounter{ism@mctr}{0}
\setcounter{xsm@mctr}{0}
\setcounter{csm@mctr}{0}
\setcounter{ksm@mctr}{0}
\setcounter{xksm@mctr}{0}
\setcounter{cksm@mctr}{0}
\setcounter{msm@mctr}{0}
\setcounter{xmsm@mctr}{0}
\setcounter{cmsm@mctr}{0}
\setcounter{bsm@mctr}{0}
\setcounter{workm@mctr}{0}
\setcounter{sheetsequence}{34}
\setcounter{lastsheet}{88}
\setcounter{lastpage}{87}
\setcounter{figure}{15}
\setcounter{lofdepth}{1}
\setcounter{table}{0}
\setcounter{lotdepth}{1}
\setcounter{Item}{0}
\setcounter{Hfootnote}{4}
\setcounter{memhycontfloat}{0}
\setcounter{Hpagenote}{0}
\setcounter{Hy@AnnotLevel}{0}
\setcounter{bookmark@seq@number}{0}
\setcounter{FBcaption@count}{0}
\setcounter{abntex@bookmarkcounter}{9}
\setcounter{alineasi}{0}
\setcounter{alineasii}{0}
\setcounter{subalineasi}{0}
\setcounter{incisosi}{0}
\setcounter{lstnumber}{1}
\setcounter{ABCIaux}{0}
\setcounter{ABCImax}{0}
\setcounter{lips@count}{0}
\setcounter{float@type}{8}
\setcounter{AM@survey}{0}
\setcounter{section@level}{1}
\setcounter{lstlisting}{0}
}
